01/02/2010,9200,9225,9258,9200,64735,36747,14.2,2.3,1.4,1
02/02/2010,9228,9100,9110,9250,71125,56471,14.3,2.35,1.6,1
03/02/2010,9230,9150,9235,9110,75451,16171,14.6,2.50,1.23,1
04/02/2010,9210,9300,9350,9212,84021,76479,14.85,2.10,1.65,1
05/02/2010,9310,9280,9315,9100,85125,63465,13.20,2.10,1.25,1
06/02/2010,8900,9000,9010,8853,48484,85844,13.15,2.15,1.68,1
07/02/2010,8920,9100,9100,8950,88448,81241,13.20,2.12,1.85,1
08/02/2010,8850,8900,8950,8820,17441,78448,14.69,2.42,1.12,1
09/02/2010,8840,8860,8865,8830,89128,98457,15.2,2.87,1.8,1
10/02/2010,8760,8800,8820,8732,44157,78847,15.40,2.45,1.65,1
11/02/2010,8750,8800,8810,8745,64543,56471,14.3,2.60,1.98,1
12/02/2010,8790,8812,8815,8769,35633,43435,15.84,2.56,1.6,1
13/02/2010,8700,8868,8780,8690,56567,67543,14.90,2.43,1.45,1
14/02/2010,8678,8700,8760,8650,65564,75464,15.70,2.90,1.88,1
15/02/2010,8640,8800,8810,8630,68463,87564,15.90,2.64,1.90,1
16/02/2010,8750,8800,8810,8860,88564,95644,14.90,2.95,1.65,1
17/02/2010,8820,9000,9010,8810,74553,98463,15.38,2.76,1.83,1
18/02/2010,9050,9100,9070,9170,54533,97686,14.35,2.98,1.95,1
19/02/2010,9203,9100,9233,9130,64643,85763,14.90,2.34,1.64,1
20/02/2010,9304,9400,9456,9324,54345,74553,14.34,2.12,1.44,1
21/02/2010,9450,9300,9540,9280,95774,95635,14.76,2.63,1.46,1
22/02/2010,9500,9505,9600,9500,88564,54367,14.84,2.22,1.75,1
23/02/2010,9700,9560,9710,9568,45544,77433,15.49,2.98,1.23,1
24/02/2010,9908,9874,9948,9784,77334,74553,14.98,2.13,1.94,1
25/02/2010,10003,9880,9874,9990,87563,84762,14.49,2.49,1.69,1
26/02/2010,10033,9870,10083,9900,77352,84836,14.53,2.83,1.92,1
27/02/2010,10500,10000,10600,9943,88563,59573,14.86,2.43,1.85,1
28/02/2010,10022,10040,10036,10000,84753,84632,14.58,2.48,1.65,1
